{
  "routes": [
    {
      "method": "GET",
      "path": "/asteroid-items",
      "handler": "asteroid-items.find",
      "config": {
        "policies": []
      }
    },
    {
      "method": "GET",
      "path": "/asteroid-items/count",
      "handler": "asteroid-items.count",
      "config": {
        "policies": []
      }
    },
    {
      "method": "GET",
      "path": "/asteroid-items/:id",
      "handler": "asteroid-items.findOne",
      "config": {
        "policies": []
      }
    },
    {
      "method": "POST",
      "path": "/asteroid-items",
      "handler": "asteroid-items.create",
      "config": {
        "policies": []
      }
    },
    {
      "method": "PUT",
      "path": "/asteroid-items/:id",
      "handler": "asteroid-items.update",
      "config": {
        "policies": []
      }
    },
    {
      "method": "DELETE",
      "path": "/asteroid-items/:id",
      "handler": "asteroid-items.delete",
      "config": {
        "policies": []
      }
    }
  ]
}
