{
  "routes": [
    {
      "method": "GET",
      "path": "/metamask-users",
      "handler": "metamask-users.find",
      "config": {
        "policies": []
      }
    },
    {
      "method": "GET",
      "path": "/metamask-users/count",
      "handler": "metamask-users.count",
      "config": {
        "policies": []
      }
    },
    {
      "method": "GET",
      "path": "/metamask-users/:id",
      "handler": "metamask-users.findOne",
      "config": {
        "policies": []
      }
    },
    {
      "method": "POST",
      "path": "/metamask-users",
      "handler": "metamask-users.create",
      "config": {
        "policies": []
      }
    },
    {
      "method": "PUT",
      "path": "/metamask-users/:id",
      "handler": "metamask-users.update",
      "config": {
        "policies": []
      }
    },
    {
      "method": "DELETE",
      "path": "/metamask-users/:id",
      "handler": "metamask-users.delete",
      "config": {
        "policies": []
      }
    }
  ]
}
