{
  "collectionName": "components_names_moon_names",
  "info": {
    "name": "moon_names",
    "icon": "archway"
  },
  "options": {},
  "attributes": {
    "metamask": {
      "type": "string"
    },
    "title": {
      "type": "string"
    },
    "owner": {
      "type": "boolean"
    }
  }
}
