{
  "kind": "collectionType",
  "collectionName": "niftysky_categories",
  "info": {
    "name": "niftysky_category"
  },
  "options": {
    "increments": true,
    "timestamps": true
  },
  "attributes": {
    "title": {
      "type": "string"
    },
    "order": {
      "type": "integer",
      "unique": true
    },
    "niftysky_products": {
      "via": "niftysky_category",
      "collection": "niftysky-products"
    },
    "wikipedia": {
      "type": "string"
    }
  }
}
