{
  "kind": "collectionType",
  "connection": "default",
  "collectionName": "niftysky_products",
  "info": {
    "name": "niftysky-products"
  },
  "options": {
    "increments": true,
    "timestamps": true
  },
  "attributes": {
    "title": {
      "type": "string"
    },
    "product_categories": {
      "collection": "product-categories",
      "via": "products",
      "dominant": true
    },
    "images": {
      "collection": "file",
      "via": "related",
      "plugin": "upload",
      "required": false
    },
    "is_featured": {
      "type": "boolean",
      "default": false
    },
    "is_hot": {
      "type": "boolean",
      "default": false
    },
    "price": {
      "type": "decimal"
    },
    "sale_price": {
      "type": "decimal"
    },
    "vendor": {
      "type": "string"
    },
    "brands": {
      "collection": "brand",
      "via": "products",
      "dominant": true
    },
    "review": {
      "type": "integer"
    },
    "is_out_of_stock": {
      "type": "boolean",
      "default": false
    },
    "depot": {
      "type": "integer"
    },
    "inventory": {
      "type": "integer"
    },
    "variants": {
      "type": "component",
      "repeatable": true,
      "component": "variants.variants"
    },
    "is_active": {
      "type": "boolean",
      "default": true
    },
    "is_sale": {
      "type": "boolean",
      "default": false
    },
    "thumbnail": {
      "model": "file",
      "via": "related",
      "plugin": "upload",
      "required": false
    },
    "collections": {
      "collection": "collection",
      "via": "products"
    },
    "slug": {
      "type": "string"
    },
    "description": {
      "type": "richtext"
    },
    "wikipedia": {
      "type": "string"
    },
    "stellarium": {
      "type": "string"
    },
    "wikidescription": {
      "type": "text"
    },
    "category": {
      "type": "string"
    },
    "category_order": {
      "type": "integer"
    },
    "niftysky_category": {
      "model": "niftysky-category",
      "via": "niftysky_products"
    },
    "diameter": {
      "type": "string"
    },
    "Center_Latitude": {
      "type": "string"
    },
    "Center_Longitude": {
      "type": "string"
    },
    "Northern_Latitude": {
      "type": "string"
    },
    "Southern_Latitude": {
      "type": "string"
    },
    "Eastern_Longitude": {
      "type": "string"
    },
    "Western_Longitude": {
      "type": "string"
    },
    "Feature_Type": {
      "type": "string"
    },
    "Quad": {
      "type": "string"
    },
    "Approval_Status": {
      "type": "string"
    },
    "product_names": {
      "type": "component",
      "repeatable": true,
      "component": "names.product-names"
    },
    "newnames": {
      "collection": "newnames",
      "via": "niftysky_products",
      "dominant": true
    }
  }
}
